{
  "command" : "cpvsx-cphaprob_state_monitoring",
  "metrics" : [ {
    "tags" : {
      "display-name" : "Cluster State",
      "im.dstype" : "gauge",
      "im.dstype.displaytype" : "state",
      "im.metric-type" : "ts",
      "im.name" : "cluster-state",
      "im.step" : "60",
      "live-config" : "true",
      "vs.id" : "2",
      "vs.name" : "lab-CP-VSX1-R7730_lab-VS1"
    },
    "value" : "0.0"
  }, {
    "tags" : {
      "display-name" : "Cluster Member State (this)",
      "im.dstype" : "gauge",
      "im.dstype.displaytype" : "state",
      "im.identity-tags" : "cluster-member-state-description",
      "im.metric-type" : "ts",
      "im.name" : "cluster-member-active",
      "im.step" : "60",
      "live-config" : "true",
      "vs.id" : "0",
      "vs.name" : "lab-CP-VSX1-R7730"
    },
    "values" : ["1.0","1.0","1.0","0.0","0.0"]
  }, {
    "tags" : {
      "im.metric-type" : "runtime",
      "im.name" : "cluster-member-states",
      "vs.id" : "0",
      "vs.name" : "lab-CP-VSX1-R7730"
    },
    "value" : [ {
      "is-local" : "1",
      "state-description" : "Standby",
      "id" : "1",
      "assigned-load-percentage" : "0%",
      "unique-ip" : "10.11.2.21"
    }, {
      "is-local" : "0",
      "state-description" : "Active",
      "id" : "2",
      "assigned-load-percentage" : "100%",
      "unique-ip" : "10.11.2.22"
    } ]
  }, {
    "tags" : {
      "im.metric-type" : "runtime",
      "im.name" : "cluster-member-states",
      "vs.id" : "2",
      "vs.name" : "lab-CP-VSX1-R7730_lab-VS1"
    },
    "value" : [ {
      "is-local" : "1",
      "state-description" : "Standby",
      "id" : "1",
      "assigned-load-percentage" : "0%",
      "unique-ip" : "10.11.2.21"
    }, {
      "is-local" : "0",
      "state-description" : "Active",
      "id" : "2",
      "assigned-load-percentage" : "100%",
      "unique-ip" : "10.11.2.22"
    } ]
  }, {
    "tags" : {
      "im.metric-type" : "runtime",
      "im.name" : "cluster-mode",
      "vs.id" : "0",
      "vs.name" : "lab-CP-VSX1-R7730"
    },
    "value" : {
      "value" : "VSX High Availability (Active Up) with IGMP Membership"
    }
  }, {
    "tags" : {
      "im.metric-type" : "runtime",
      "im.name" : "cluster-mode",
      "vs.id" : "2",
      "vs.name" : "lab-CP-VSX1-R7730_lab-VS1"
    },
    "value" : {
      "value" : "VSX High Availability (Active Up) with IGMP Membership"
    }
  }, {
    "tags" : {
      "display-name" : "Cluster Member State (this)",
      "im.dstype" : "gauge",
      "im.dstype.displaytype" : "state",
      "im.identity-tags" : "cluster-member-state-description",
      "im.metric-type" : "ts",
      "im.name" : "cluster-member-active",
      "im.step" : "60",
      "live-config" : "true",
      "vs.id" : "2",
      "vs.name" : "lab-CP-VSX1-R7730_lab-VS1"
    },
    "value" : "0.0"
  }, {
    "tags" : {
      "display-name" : "Cluster State",
      "im.dstype" : "gauge",
      "im.dstype.displaytype" : "state",
      "im.metric-type" : "ts",
      "im.name" : "cluster-state",
      "im.step" : "60",
      "live-config" : "true",
      "vs.id" : "0",
      "vs.name" : "lab-CP-VSX1-R7730"
    },
    "value" : "1.0"
  } ]
}
