{
  "command" : "cplic-print",
  "metrics" : [ {
    "tags" : {
      "features" : "CPSB-ADNC-M CPSB-EVCR-10",
      "im.dstype" : "gauge",
      "im.metric-type" : "ts",
      "im.name" : "license-expiration",
      "im.step" : "3600",
      "name" : "CK-00-1C-7F-3E-CB-38"
    },
    "value" : "1485311246"
  }, {
    "tags" : {
      "display-name" : "Support Contract Expiration",
      "im.dstype" : "gauge",
      "im.dstype.displaytype" : "date",
      "im.metric-type" : "ts",
      "im.name" : "contract-expiration",
      "im.step" : "3600",
      "live-config" : "true",
      "name" : "2HE23U1 - CPSB-TEMU-M-8VM-1Y"
    },
    "value" : "1485311246"
  }, {
    "tags" : {
      "display-name" : "Support Contract Expiration",
      "im.dstype" : "gauge",
      "im.dstype.displaytype" : "date",
      "im.metric-type" : "ts",
      "im.name" : "contract-expiration",
      "im.step" : "3600",
      "live-config" : "true",
      "name" : "2TH2H3G - CPSB-TEX-M-1Y"
    },
    "value" : "1485311246"
  }, {
    "tags" : {
      "display-name" : "Support Contract Expiration",
      "im.dstype" : "gauge",
      "im.dstype.displaytype" : "date",
      "im.metric-type" : "ts",
      "im.name" : "contract-expiration",
      "im.step" : "3600",
      "live-config" : "true",
      "name" : "38IH618 - CPSB-ABOT-M-1Y"
    },
    "value" : "1.4935032E9"
  }, {
    "tags" : {
      "display-name" : "Support Contract Expiration",
      "im.dstype" : "gauge",
      "im.dstype.displaytype" : "date",
      "im.metric-type" : "ts",
      "im.name" : "contract-expiration",
      "im.step" : "3600",
      "live-config" : "true",
      "name" : "521AF44 - CPES-SS-PREMIUM-ADD"
    },
    "value" : "1.4935032E9"
  }, {
    "tags" : {
      "display-name" : "Support Contract Expiration",
      "im.dstype" : "gauge",
      "im.dstype.displaytype" : "date",
      "im.metric-type" : "ts",
      "im.name" : "contract-expiration",
      "im.step" : "3600",
      "live-config" : "true",
      "name" : "A1HS127 - CPES-SS-PREMIUM"
    },
    "value" : "1.4935032E9"
  }, {
    "tags" : {
      "display-name" : "Support Contract Expiration",
      "im.dstype" : "gauge",
      "im.dstype.displaytype" : "date",
      "im.metric-type" : "ts",
      "im.name" : "contract-expiration",
      "im.step" : "3600",
      "live-config" : "true",
      "name" : "FE2GR46 - CPES-SS-PREMIUM-ADD"
    },
    "value" : "1.4935032E9"
  }, {
    "tags" : {
      "display-name" : "Support Contract Expiration",
      "im.dstype" : "gauge",
      "im.dstype.displaytype" : "date",
      "im.metric-type" : "ts",
      "im.name" : "contract-expiration",
      "im.step" : "3600",
      "live-config" : "true",
      "name" : "H55W973 - CPSB-AV-M-1Y"
    },
    "value" : "1.4935032E9"
  }, {
    "tags" : {
      "display-name" : "License Expiration",
      "features" : "CPSB-ADNC-M-HA",
      "im.dstype" : "gauge",
      "im.dstype.displaytype" : "date",
      "im.identity-tags" : "name",
      "im.metric-type" : "ts",
      "im.name" : "license-expiration",
      "im.step" : "3600",
      "live-config" : "true",
      "name" : "CK-00-1C-7F-33-56-1B"
    },
    "value" : "1.5540696E9"
  }, {
    "tags" : {
      "features" : "CPSM-C-25 CPSB-NPM CPSB-EPM CPSB-LOGS CPSB-MNTR CPSB-PRVS CPSB-IPSA",
      "im.dstype" : "gauge",
      "im.metric-type" : "ts",
      "im.name" : "license-expiration",
      "im.step" : "3600",
      "name" : "CK-BB582E12085C"
    },
    "value" : "4.1023548E9"
  }, {
    "tags" : {
      "im.metric-type" : "runtime",
      "im.name" : "features-enabled"
    },
    "value" : [ {
      "name" : "CPSB-ADNC-M"
    }, {
      "name" : "CPSB-EVCR-10"
    }, {
      "name" : "CPSM-C-25"
    }, {
      "name" : "CPSB-NPM"
    }, {
      "name" : "CPSB-EPM"
    }, {
      "name" : "CPSB-LOGS"
    }, {
      "name" : "CPSB-MNTR"
    }, {
      "name" : "CPSB-PRVS"
    }, {
      "name" : "CPSB-IPSA"
    }, {
      "name" : "CPSB-ADNC-M"
    } ]
  } ]
}
