{
  "command" : "chkp-clish-show_snmp_agent",
  "metrics" : [ {
    "tags" : {
      "display-name" : "SNMP - Contact",
      "im.metric-type" : "runtime",
      "im.name" : "snmp-contact",
      "live-config" : "true"
    },
    "value" : {
      "value" : "Mr Cool"
    }
  }, {
    "tags" : {
      "display-name" : "SNMP - Location",
      "im.metric-type" : "runtime",
      "im.name" : "snmp-location",
      "live-config" : "true"
    },
    "value" : {
      "value" : "superduperlocation here"
    }
  }, {
    "tags" : {
      "im.metric-type" : "runtime",
      "im.name" : "snmp-communities"
    },
    "value" : [ {
      "permissions" : "read-write",
      "community" : "writestring"
    }, {
      "permissions" : "read-only",
      "community" : "public"
    } ]
  }, {
    "tags" : {
      "im.metric-type" : "runtime",
      "im.name" : "snmp-enabled"
    },
    "value" : {
      "value" : "Enabled"
    }
  }, {
    "tags" : {
      "im.metric-type" : "runtime",
      "im.name" : "snmp-mode"
    },
    "value" : {
      "value" : "default"
    }
  }, {
    "tags" : {
      "im.metric-type" : "runtime",
      "im.name" : "snmp-version"
    },
    "value" : {
      "value" : "v1/v2/v3"
    }
  } ]
}
