{
  "command" : "cpvsx-vpn-check-tunnels-vsx",
  "metrics" : [ {
    "tags" : {
      "always-on" : "true",
      "im.dstype" : "gauge",
      "im.metric-type" : "ts",
      "im.name" : "vpn-tunnel-state",
      "im.step" : "300",
      "name" : "VPN-MESH-VS",
      "peerip" : "10.10.6.25",
      "remote-peer-name" : "lab-CP-GW5-R7730",
      "vs.id" : "2",
      "vs.name" : "lab-CP-VSXVSLS-1-R7730_lab-VS3"
    },
    "value" : "0.0"
  }, {
    "tags" : {
      "always-on" : "true",
      "im.dstype" : "gauge",
      "im.metric-type" : "ts",
      "im.name" : "vpn-tunnel-state",
      "im.step" : "300",
      "name" : "VSS-TOO-CLUSS",
      "peerip" : "10.10.6.20",
      "remote-peer-name" : "lab-CP-GW-R7730",
      "vs.id" : "3",
      "vs.name" : "lab-CP-VSXVSLS-1-R7730_lab-VS4"
    },
    "value" : "1.0"
  } ]
}
