{
  "command" : "f5-cat-var-log-ltm",
  "metrics" : [ {
    "tags" : {
      "im.metric-type" : "runtime",
      "im.name" : "ip-address-conflict"
    },
    "values" : [ [ {
      "ip" : "10.245.0.253",
      "mac-address" : "00:50:56:90:01:22)",
      "vlan-id" : "31"
    }, {
      "ip" : "10.245.0.254",
      "vlan-id" : "32",
      "mac-address" : "00:50:56:90:01:22)"
    }, {
      "ip" : "10.245.0.254",
      "vlan-id" : "32",
      "mac-address" : "00:50:56:90:01:22)"
    }, {
      "vlan-id" : "32",
      "mac-address" : "00:50:56:90:01:22)",
      "ip" : "10.245.0.254"
    }, {
      "mac-address" : "00:50:56:90:01:22)",
      "ip" : "10.245.0.254",
      "vlan-id" : "32"
    }, {
      "ip" : "10.245.0.252",
      "mac-address" : "00:50:56:90:01:22)",
      "vlan-id" : "33"
    } ] ]
  } ]
}
