{
  "command" : "f5-rest-mgmt-tm-sys-db-rstcause-pkt",
  "metrics" : [ {
    "tags" : {
      "im.dstype.displaytype" : "state",
      "im.name" : "debug-status",
      "name" : "tm.rstcause.pkt"
    },
    "value" : "1.0"
  } ]
}
