{
  "command" : "f5-rest-mgmt-tm-cm-traffic-group",
  "metrics" : [ {
    "tags" : {
      "im.dstype.displaytype" : "state",
      "im.name" : "cluster-preemption",
      "name" : "/Common/traffic-group-1"
    },
    "value" : "1.0"
  }, {
    "tags" : {
      "im.dstype.displaytype" : "state",
      "im.name" : "cluster-preemption",
      "name" : "/Common/traffic-group-local-only"
    },
    "value" : "0.0"
  } ]
}
