{
  "command" : "f5-rest-mgmt-tm-sys-route-maxentries",
  "metrics" : [ {
    "tags" : {
      "display-name" : "Routes limit",
      "im.display-type" : "number",
      "im.dstype.displaytype" : "number",
      "im.identity-tags" : "name",
      "im.name" : "routes-limit",
      "live-config" : "true"
    },
    "value" : "500.0"
  } ]
}
