{
  "command" : "f5-rest-mgmt-tm-ltm-persistence-cookie",
  "metrics" : [ {
    "tags" : {
      "im.dstype.displaytype" : "boolean",
      "im.name" : "f5-cookied-persistence-encrypted",
      "name" : "/Mypartition/encryptedcookie"
    },
    "value" : {
      "value" : "true"
    }
  } ]
}
