{
  "command" : "f5-tmsh-show-sys-raid-array",
  "metrics" : [ {
    "tags" : {
      "im.dstype" : "state",
      "im.metric-type" : "ts",
      "im.name" : "hardware-element-status",
      "im.step" : "600",
      "name" : "RAID"
    },
    "value" : "0.0"
  } ]
}
