{
  "command" : "f5-tmsh-list-ltm-configuration",
  "metrics" : [ {
    "tags" : {
      "im.metric-type" : "runtime",
      "im.name" : "f5-vcmp-host-existing-ltm-configuration"
    },
    "value" : [ {
      "type" : "Node"
    }, {
      "type" : "Virtual-address"
    } ]
  } ]
}
