{
  "command" : "panos-ping-indeni-com",
  "metrics" : [ {
    "tags" : {
      "display-name" : "DNS Servers - State",
      "im.dstype" : "gauge",
      "im.dstype.displaytype" : "state",
      "im.identity-tags" : "name",
      "im.metric-type" : "ts",
      "im.name" : "dns-server-state",
      "im.step" : "300",
      "live-config" : "true",
      "name" : "configured DNS server"
    },
    "value" : "0.0"
  } ]
}
