{
  "command" : "panos-show_config_running-monitoring-xml",
  "metrics" : [ {
    "tags" : {
      "display-name" : "Application Packages - Acceptable Lag",
      "im.dstype.displaytype" : "duration",
      "im.name" : "app-update-acceptable-lag",
      "live-config" : "true"
    },
    "value" : "950400.0"
  }, {
    "tags" : {
      "display-name" : "Application Packages - Update Action",
      "im.dstype.displaytype" : "string",
      "im.name" : "panw-app-update-action",
      "live-config" : "true"
    },
    "value" : {
      "value" : "download-only"
    }
  }, {
    "tags" : {
      "display-name" : "Domain",
      "im.name" : "domain",
      "live-config" : "true"
    },
    "value" : {
      "value" : "indeni.com"
    }
  }, {
    "tags" : {
      "display-name" : "Login Banner",
      "im.name" : "login-banner",
      "live-config" : "true"
    },
    "value" : {
      "value" : "myloginbanner"
    }
  }, {
    "tags" : {
      "display-name" : "Certificate Expiration",
      "im.dstype.displaytype" : "date",
      "im.identity-tags" : "name",
      "im.name" : "certificate-expiration",
      "live-config" : "true",
      "name" : "/CN=office-pa200"
    },
    "value" : "1483862396"
  }, {
    "tags" : {
      "display-name" : "Licenses - Usage",
      "im.dstype.displaytype" : "number",
      "im.identity-tags" : "name",
      "im.name" : "license-elements-used",
      "live-config" : "true",
      "name" : "vsys"
    },
    "value" : "8.0"
  }, {
    "tags" : {
      "display-name" : "Timezone",
      "im.name" : "timezone",
      "live-config" : "true"
    },
    "value" : {
      "value" : "US/Pacific"
    }
  } ]
}
