{
  "command" : "panos-show-interface",
  "metrics" : [ {
    "tags" : {
      "im.name" : "network-interface-admin-state",
      "name" : "ethernet1/1"
    },
    "value" : "1.0"
  }, {
    "tags" : {
      "im.name" : "network-interfaces"
    },
    "value" : [ {
      "name" : "ethernet1/4"
    } ]
  }, {
    "tags" : {
      "im.name" : "network-interface-admin-state",
      "name" : "ethernet1/2"
    },
    "value" : "1.0"
  }, {
    "tags" : {
      "im.name" : "network-interface-admin-state",
      "name" : "ethernet1/3"
    },
    "value" : "1.0"
  }, {
    "tags" : {
      "im.name" : "network-interface-admin-state",
      "name" : "ethernet1/4"
    },
    "value" : "1.0"
  }, {
    "tags" : {
      "im.name" : "network-interface-admin-state",
      "name" : "ethernet1/5"
    },
    "value" : "1.0"
  }, {
    "tags" : {
      "im.name" : "network-interface-admin-state",
      "name" : "ethernet1/7"
    },
    "value" : "1.0"
  }, {
    "tags" : {
      "im.name" : "network-interface-duplex",
      "name" : "ethernet1/1",
      "live-config": "true",
      "display-name": "Network Interfaces - Duplex"
    },
    "value" : {
      "value" : "half"
    }
  }, {
    "tags" : {
      "im.name" : "network-interface-duplex",
      "name" : "ethernet1/3"
    },
    "value" : {
      "value" : "full"
    }
  }, {
    "tags" : {
      "im.name" : "network-interface-mac",
      "name" : "ethernet1/1"
    },
    "value" : {
      "value" : "00:1b:17:00:0a:10"
    }
  }, {
    "tags" : {
      "im.name" : "network-interface-mac",
      "name" : "ethernet1/2"
    },
    "value" : {
      "value" : "00:1b:17:00:0a:11"
    }
  }, {
    "tags" : {
      "im.name" : "network-interface-mac",
      "name" : "ethernet1/3"
    },
    "value" : {
      "value" : "00:1b:17:00:0a:12"
    }
  }, {
    "tags" : {
      "im.name" : "network-interface-mac",
      "name" : "ethernet1/4"
    },
    "value" : {
      "value" : "58:49:3b:e7:c7:13"
    }
  }, {
    "tags" : {
      "im.name" : "network-interface-mac",
      "name" : "ethernet1/7"
    },
    "value" : {
      "value" : "00:1b:17:00:0a:16"
    }
  }, {
    "tags" : {
      "im.name" : "network-interface-mtu",
      "name" : "ethernet1/1"
    },
    "value" : {
      "value" : "1500"
    }
  }, {
    "tags" : {
      "im.name" : "network-interface-mtu",
      "name" : "ethernet1/3"
    },
    "value" : {
      "value" : "1500"
    }
  }, {
    "tags" : {
      "im.name" : "network-interface-rx-bytes",
      "name" : "ethernet1/1"
    },
    "values" : ["100","200", "300", "400"]
  }, {
    "tags" : {
      "im.name" : "network-interface-rx-bytes",
      "name" : "ethernet1/2"
    },
    "value" : "0.0"
  }, {
    "tags" : {
      "im.name" : "network-interface-rx-bytes",
      "name" : "ethernet1/3"
    },
    "value" : "9.357215461E9"
  }, {
    "tags" : {
      "im.name" : "network-interface-rx-bytes",
      "name" : "ethernet1/4"
    },
    "value" : "0.0"
  }, {
    "tags" : {
      "im.name" : "network-interface-rx-bytes",
      "name" : "ethernet1/7"
    },
    "value" : "0.0"
  }, {
    "tags" : {
      "im.name" : "network-interface-rx-dropped",
      "name" : "ethernet1/1"
    },
    "values" : ["0.0", "30", "70", "300"]
  }, {
    "tags" : {
      "im.name" : "network-interface-rx-dropped",
      "name" : "ethernet1/2"
    },
    "value" : "0.0"
  }, {
    "tags" : {
      "im.name" : "network-interface-rx-dropped",
      "name" : "ethernet1/3"
    },
    "value" : "0.0"
  }, {
    "tags" : {
      "im.name" : "network-interface-rx-dropped",
      "name" : "ethernet1/4"
    },
    "value" : "0.0"
  }, {
    "tags" : {
      "im.name" : "network-interface-rx-dropped",
      "name" : "ethernet1/7"
    },
    "value" : "0.0"
  }, {
    "tags" : {
      "im.name" : "network-interface-rx-errors",
      "name" : "ethernet1/1"
    },
    "values" : ["12.0", "14.0", "30"]
  }, {
    "tags" : {
      "im.name" : "network-interface-rx-errors",
      "name" : "ethernet1/2"
    },
    "value" : "0.0"
  }, {
    "tags" : {
      "im.name" : "network-interface-rx-errors",
      "name" : "ethernet1/3"
    },
    "value" : "4.0"
  }, {
    "tags" : {
      "im.name" : "network-interface-rx-errors",
      "name" : "ethernet1/4"
    },
    "value" : "0.0"
  }, {
    "tags" : {
      "im.name" : "network-interface-rx-errors",
      "name" : "ethernet1/5"
    },
    "value" : "0.0"
  }, {
    "tags" : {
      "im.name" : "network-interface-rx-errors",
      "name" : "ethernet1/7"
    },
    "value" : "0.0"
  }, {
    "tags" : {
      "im.name" : "network-interface-rx-packets",
      "name" : "ethernet1/1"
    },
    "values" : ["100", "200", "300", "400"]
  }, {
    "tags" : {
      "im.name" : "network-interface-rx-packets",
      "name" : "ethernet1/2"
    },
    "value" : "0.0"
  }, {
    "tags" : {
      "im.name" : "network-interface-rx-packets",
      "name" : "ethernet1/3"
    },
    "value" : "1.49979318E8"
  }, {
    "tags" : {
      "im.name" : "network-interface-rx-packets",
      "name" : "ethernet1/4"
    },
    "value" : "0.0"
  }, {
    "tags" : {
      "im.name" : "network-interface-rx-packets",
      "name" : "ethernet1/5"
    },
    "value" : "0.0"
  }, {
    "tags" : {
      "im.name" : "network-interface-rx-packets",
      "name" : "ethernet1/7"
    },
    "value" : "0.0"
  }, {
    "tags" : {
      "im.name" : "network-interface-speed",
      "name" : "ethernet1/1"
    },
    "value" : {
      "value" : "100M"
    }
  }, {
    "tags" : {
      "im.name" : "network-interface-speed",
      "name" : "ethernet1/3"
    },
    "value" : {
      "value" : "10000M"
    }
  }, {
    "tags" : {
      "im.name" : "network-interface-state",
      "name" : "ethernet1/1"
    },
    "value" : "1.0"
  }, {
    "tags" : {
      "im.name" : "network-interface-state",
      "name" : "ethernet1/2"
    },
    "value" : "0.0"
  }, {
    "tags" : {
      "im.name" : "network-interface-state",
      "name" : "ethernet1/3"
    },
    "value" : "1.0"
  }, {
    "tags" : {
      "im.name" : "network-interface-state",
      "name" : "ethernet1/4"
    },
    "value" : "0.0"
  }, {
    "tags" : {
      "im.name" : "network-interface-state",
      "name" : "ethernet1/5"
    },
    "value" : "0.0"
  }, {
    "tags" : {
      "im.name" : "network-interface-tx-bytes",
      "name" : "ethernet1/1"
    },
    "value" : "2910432.0"
  }, {
    "tags" : {
      "im.name" : "network-interface-tx-bytes",
      "name" : "ethernet1/2"
    },
    "value" : "0.0"
  }, {
    "tags" : {
      "im.name" : "network-interface-tx-bytes",
      "name" : "ethernet1/3"
    },
    "value" : "2910432.0"
  }, {
    "tags" : {
      "im.name" : "network-interface-tx-bytes",
      "name" : "ethernet1/4"
    },
    "value" : "0.0"
  }, {
    "tags" : {
      "im.name" : "network-interface-tx-bytes",
      "name" : "ethernet1/5"
    },
    "value" : "0.0"
  }, {
    "tags" : {
      "im.name" : "network-interface-tx-bytes",
      "name" : "ethernet1/7"
    },
    "value" : "0.0"
  }, {
    "tags" : {
      "im.name" : "network-interface-tx-packets",
      "name" : "ethernet1/1"
    },
    "value" : "69296.0"
  }, {
    "tags" : {
      "im.name" : "network-interface-tx-packets",
      "name" : "ethernet1/2"
    },
    "value" : "0.0"
  }, {
    "tags" : {
      "im.name" : "network-interface-tx-packets",
      "name" : "ethernet1/3"
    },
    "value" : "69296.0"
  }, {
    "tags" : {
      "im.name" : "network-interface-tx-packets",
      "name" : "ethernet1/5"
    },
    "value" : "0.0"
  }, {
    "tags" : {
      "im.name" : "network-interfaces"
    },
    "value" : [ {
      "name" : "ethernet1/3"
    } ]
  }, {
    "tags" : {
      "im.name" : "network-interface-mac",
      "name" : "ethernet1/5"
    },
    "value" : {
      "value" : "58:49:3b:e7:c7:14"
    }
  }, {
    "tags" : {
      "im.name" : "network-interface-rx-bytes",
      "name" : "ethernet1/5"
    },
    "value" : "0.0"
  }, {
    "tags" : {
      "im.name" : "network-interface-rx-dropped",
      "name" : "ethernet1/5"
    },
    "value" : "0.0"
  }, {
    "tags" : {
      "im.name" : "network-interface-state",
      "name" : "ethernet1/7"
    },
    "value" : "0.0"
  }, {
    "tags" : {
      "im.name" : "network-interface-tx-packets",
      "name" : "ethernet1/4"
    },
    "value" : "0.0"
  }, {
    "tags" : {
      "im.name" : "network-interface-tx-packets",
      "name" : "ethernet1/7"
    },
    "value" : "0.0"
  } ]
}
