{
  "command" : "panos-show-session-info",
  "metrics" : [ {
    "tags" : {
      "display-name" : "CPS",
      "im.dstype.displaytype" : "number",
      "im.name" : "connections-per-second",
      "live-config" : "true"
    },
    "values" : ["101.0", "106", "266", "1202", "100"]
  }, {
    "tags" : {
      "display-name" : "Sessions - Current",
      "im.dstype.displaytype" : "number",
      "im.name" : "concurrent-connections",
      "live-config" : "true"
    },
    "values" : ["200151.0", "201611", "203511", "202122"]
  }, {
    "tags" : {
      "display-name" : "Sessions - Limit",
      "im.dstype.displaytype" : "number",
      "im.name" : "concurrent-connections-limit",
      "live-config" : "true"
    },
    "value" : "249998.0"
  } ]
}
