{
  "command" : "panos-debug-log-receiver-statistics",
  "metrics" : [ {
    "tags" : {
      "im.dstype" : "counter",
      "im.metric-type" : "ts",
      "im.name" : "log-forward-discarded-queue-full",
      "im.step" : "1800"
    },
    "value" : "117.0"
  }, {
    "tags" : {
      "im.dstype" : "counter",
      "im.metric-type" : "ts",
      "im.name" : "log-forward-discarded-send-error",
      "im.step" : "1800"
    },
    "value" : "102.0"
  }, {
    "tags" : {
      "im.dstype" : "counter",
      "im.metric-type" : "ts",
      "im.name" : "logs-discarded-queue-full",
      "im.step" : "1800"
    },
    "value" : "0.0"
  } ]
}
