{
  "command" : "chkp-check-SIC-mds",
  "metrics" : [ {
    "tags" : {
      "im.dstype" : "gauge",
      "im.metric-type" : "ts",
      "im.name" : "chkp-sic-connection-state",
      "im.step" : "300",
      "ip" : "10.10.6.10",
      "name" : "lab-CP-MGMT-R7730_Management_Server",
      "vs.ip" : "10.10.6.10",
      "vs.name" : "lab-CP-MGMT-R7730_Management_Server"
    },
    "value" : "1.0"
  }, {
    "tags" : {
      "im.dstype" : "gauge",
      "im.metric-type" : "ts",
      "im.name" : "chkp-sic-connection-state",
      "im.step" : "300",
      "ip" : "10.10.6.14",
      "name" : "MDM-VSX_Management_Server",
      "vs.ip" : "10.10.6.10",
      "vs.name" : "lab-CP-MGMT-R7730_Management_Server"
    },
    "value" : "1.0"
  }, {
    "tags" : {
      "im.dstype" : "gauge",
      "im.metric-type" : "ts",
      "im.name" : "chkp-sic-connection-state",
      "im.step" : "300",
      "ip" : "10.10.6.15",
      "name" : "lab-CP-MGMT-R7730-HA",
      "vs.ip" : "10.10.6.10",
      "vs.name" : "lab-CP-MGMT-R7730_Management_Server"
    },
    "value" : "1.0"
  }, {
    "tags" : {
      "im.dstype" : "gauge",
      "im.metric-type" : "ts",
      "im.name" : "chkp-sic-connection-state",
      "im.step" : "300",
      "ip" : "10.10.6.21",
      "name" : "lab-CP-GW1-R7730",
      "vs.ip" : "10.10.6.10",
      "vs.name" : "lab-CP-MGMT-R7730_Management_Server"
    },
    "value" : "1.0"
  }, {
    "tags" : {
      "im.dstype" : "gauge",
      "im.metric-type" : "ts",
      "im.name" : "chkp-sic-connection-state",
      "im.step" : "300",
      "ip" : "10.10.6.22",
      "name" : "lab-CP-GW2-R7730",
      "vs.ip" : "10.10.6.10",
      "vs.name" : "lab-CP-MGMT-R7730_Management_Server"
    },
    "value" : "0.0"
  }, {
    "tags" : {
      "im.dstype" : "gauge",
      "im.metric-type" : "ts",
      "im.name" : "chkp-sic-connection-state",
      "im.step" : "300",
      "ip" : "10.10.6.26",
      "name" : "lab-CP-GW5-R7710",
      "vs.ip" : "10.10.6.10",
      "vs.name" : "lab-CP-MGMT-R7730_Management_Server"
    },
    "value" : "0.0"
  }, {
    "tags" : {
      "im.dstype" : "gauge",
      "im.metric-type" : "ts",
      "im.name" : "chkp-sic-connection-state",
      "im.step" : "300",
      "ip" : "10.10.6.51",
      "name" : "lab-CP-VSXVSLS-1-R7730",
      "vs.ip" : "10.10.6.10",
      "vs.name" : "lab-CP-MGMT-R7730_Management_Server"
    },
    "value" : "0.0"
  }, {
    "tags" : {
      "im.dstype" : "gauge",
      "im.metric-type" : "ts",
      "im.name" : "chkp-sic-connection-state",
      "im.step" : "300",
      "ip" : "10.10.6.51",
      "name" : "lab-CP-VSXVSLS-1-R7730_VSW",
      "vs.ip" : "10.10.6.10",
      "vs.name" : "lab-CP-MGMT-R7730_Management_Server"
    },
    "value" : "0.0"
  }, {
    "tags" : {
      "im.dstype" : "gauge",
      "im.metric-type" : "ts",
      "im.name" : "chkp-sic-connection-state",
      "im.step" : "300",
      "ip" : "10.10.6.51",
      "name" : "lab-CP-VSXVSLS-1-R7730_lab-VS3",
      "vs.ip" : "10.10.6.10",
      "vs.name" : "lab-CP-MGMT-R7730_Management_Server"
    },
    "value" : "0.0"
  }, {
    "tags" : {
      "im.dstype" : "gauge",
      "im.metric-type" : "ts",
      "im.name" : "chkp-sic-connection-state",
      "im.step" : "300",
      "ip" : "10.10.6.51",
      "name" : "lab-CP-VSXVSLS-1-R7730_lab-VS4",
      "vs.ip" : "10.10.6.10",
      "vs.name" : "lab-CP-MGMT-R7730_Management_Server"
    },
    "value" : "0.0"
  }, {
    "tags" : {
      "im.dstype" : "gauge",
      "im.metric-type" : "ts",
      "im.name" : "chkp-sic-connection-state",
      "im.step" : "300",
      "ip" : "10.10.6.52",
      "name" : "lab-CP-VSXVSLS-2-R7730",
      "vs.ip" : "10.10.6.10",
      "vs.name" : "lab-CP-MGMT-R7730_Management_Server"
    },
    "value" : "1.0"
  }, {
    "tags" : {
      "im.dstype" : "gauge",
      "im.metric-type" : "ts",
      "im.name" : "chkp-sic-connection-state",
      "im.step" : "300",
      "ip" : "10.10.6.52",
      "name" : "lab-CP-VSXVSLS-2-R7730_VSW",
      "vs.ip" : "10.10.6.10",
      "vs.name" : "lab-CP-MGMT-R7730_Management_Server"
    },
    "value" : "0.0"
  }, {
    "tags" : {
      "im.dstype" : "gauge",
      "im.metric-type" : "ts",
      "im.name" : "chkp-sic-connection-state",
      "im.step" : "300",
      "ip" : "10.10.6.52",
      "name" : "lab-CP-VSXVSLS-2-R7730_lab-VS3",
      "vs.ip" : "10.10.6.10",
      "vs.name" : "lab-CP-MGMT-R7730_Management_Server"
    },
    "value" : "0.0"
  }, {
    "tags" : {
      "im.dstype" : "gauge",
      "im.metric-type" : "ts",
      "im.name" : "chkp-sic-connection-state",
      "im.step" : "300",
      "ip" : "10.10.6.52",
      "name" : "lab-CP-VSXVSLS-2-R7730_lab-VS4",
      "vs.ip" : "10.10.6.10",
      "vs.name" : "lab-CP-MGMT-R7730_Management_Server"
    },
    "value" : "0.0"
  } ]
}
