{
	"device-id": "580f5a74-f922-476a-a3f6-sdflkjvnsdklfgn",
	"name" : "N5k-Up",
	"ip": "192.168.161.31",
	"tags": {
		"vendor": "cisco",
		"os.name": "nxos", 
		"os.version": "7.0(2)N1(1)", 
		"model": "Nexus5548", 
		"high-availability": "true", 
		"cluster-id" : "00:23:04:ee:be:1e:172.16.20.21:172.16.20.22",
		"hostname": "N5k-UP"
	}
}
