{
  "command": "nexus-show-feature",
  "metrics": [
    {
      "tags": {
        "im.metric-type": "runtime",
        "im.name": "features-enabled"
      },
      "value": [
        {
          "name": "fex"
        },
        {
          "name": "hsrp_engine"
        },
        {
          "name": "interface-vlan"
        },
        {
          "name": "lacp"
        },
        {
          "name": "lldp"
        },
        {
          "name": "ospf"
        },
        {
          "name": "pbr"
        },
        {
          "name": "sshServer"
        }
      ]
    }
  ]
}
