{
  "command" : "nexus-vpc",
  "metrics" : [ {
    "tags" : {
      "display-name" : "VPC - Peer Consistency",
      "im.dstype.displaytype" : "state",
      "im.identity-tags" : "name",
      "im.name" : "nexus-vpc-peer-consistency",
      "live-config" : "true"
    },
    "value" : "1.0"
  }, {
    "tags" : {
      "display-name" : "VPC - Peer Consistency Description",
      "im.dstype.displaytype" : "state",
      "im.identity-tags" : "name",
      "im.name" : "nexus-vpc-peer-consistency-description",
      "live-config" : "true"
    },
    "value" : {
      "value" : "SUCCESS"
    }
  }, {
    "tags" : {
      "display-name" : "VPC - Peer Status",
      "im.dstype.displaytype" : "state",
      "im.identity-tags" : "name",
      "im.name" : "nexus-vpc-peer-status",
      "live-config" : "true"
    },
    "value" : "1.0"
  }, {
    "tags" : {
      "display-name" : "VPC - Peer Status Description",
      "im.dstype.displaytype" : "state",
      "im.identity-tags" : "name",
      "im.name" : "nexus-vpc-peer-status-description",
      "live-config" : "true"
    },
    "value" : {
      "value" : "SUCCESS"
    }
  }, {
    "tags" : {
      "display-name" : "VPC - Per VLAN Consistency",
      "im.dstype.displaytype" : "state",
      "im.identity-tags" : "name",
      "im.name" : "nexus-vpc-per-vlan-peer-consistency",
      "live-config" : "true"
    },
    "value" : "1.0"
  }, {
    "tags" : {
      "display-name" : "VPC - Type 2 Consistency",
      "im.dstype.displaytype" : "state",
      "im.identity-tags" : "name",
      "im.name" : "nexus-vpc-type-2-consistency",
      "live-config" : "true"
    },
    "value" : "0.0"
  }, {
    "tags" : {
      "display-name" : "VPC - Type 2 Consistency Description",
      "im.dstype.displaytype" : "state",
      "im.identity-tags" : "name",
      "im.name" : "nexus-vpc-type-2-consistency-description",
      "live-config" : "true"
    },
    "value" : {
      "value" : "SUCCESS"
    }
  } ]
}
