{
  "command" : "f5-ls-service-mcpd-forcereload",
  "metrics" : [ {
    "tags" : {
      "im.dstype" : "gauge",
      "im.metric-type" : "ts",
      "im.name" : "debug-status",
      "im.step" : "1800",
      "name" : "mcpd-force-reload"
    },
    "values" : [ "1.0" ]
  } ]
}
