{
  "command" : "f5-openssl",
  "metrics" : [ {
    "tags" : {
      "im.metric-type" : "runtime",
      "im.name" : "default-management-certificate-used"
    },
    "value" : {
      "values" : [ "true" ]
    }
  } ]
}
