{
  "command" : "f5-rest-mgmt-tm-ltm-profile-client-ssl-stats",
  "metrics" : [ {
    "tags" : {
      "im.dstype" : "counter",
      "im.dstype.displaytype" : "number",
      "im.name" : "ssl-insecure-handshakes-accepted",
      "name" : "/Common/clientssl"
    },
    "value" : "0.0"
  }, {
    "tags" : {
      "im.dstype" : "counter",
      "im.dstype.displaytype" : "number",
      "im.name" : "ssl-insecure-handshakes-accepted",
      "name" : "/Common/clientssl-insecure-compatible"
    },
    "value" : "5044.0"
  }, {
    "tags" : {
      "im.dstype" : "counter",
      "im.dstype.displaytype" : "number",
      "im.name" : "ssl-insecure-handshakes-accepted",
      "name" : "/Common/clientssl-secure"
    },
    "value" : "0.0"
  }, {
    "tags" : {
      "im.dstype" : "counter",
      "im.dstype.displaytype" : "number",
      "im.name" : "ssl-insecure-handshakes-accepted",
      "name" : "/Common/crypto-server-default-clientssl"
    },
    "value" : "0.0"
  }, {
    "tags" : {
      "im.dstype" : "counter",
      "im.dstype.displaytype" : "number",
      "im.name" : "ssl-insecure-handshakes-accepted",
      "name" : "/Common/wom-default-clientssl"
    },
    "value" : "0.0"
  }, {
    "tags" : {
      "im.dstype" : "counter",
      "im.dstype.displaytype" : "number",
      "im.name" : "ssl-insecure-handshakes-rejected",
      "name" : "/Common/clientssl"
    },
    "value" : "0.0"
  }, {
    "tags" : {
      "im.dstype" : "counter",
      "im.dstype.displaytype" : "number",
      "im.name" : "ssl-insecure-handshakes-rejected",
      "name" : "/Common/clientssl-insecure-compatible"
    },
    "value" : "2949.0"
  }, {
    "tags" : {
      "im.dstype" : "counter",
      "im.dstype.displaytype" : "number",
      "im.name" : "ssl-insecure-handshakes-rejected",
      "name" : "/Common/clientssl-secure"
    },
    "value" : "0.0"
  }, {
    "tags" : {
      "im.dstype" : "counter",
      "im.dstype.displaytype" : "number",
      "im.name" : "ssl-insecure-handshakes-rejected",
      "name" : "/Common/crypto-server-default-clientssl"
    },
    "value" : "0.0"
  }, {
    "tags" : {
      "im.dstype" : "counter",
      "im.dstype.displaytype" : "number",
      "im.name" : "ssl-insecure-handshakes-rejected",
      "name" : "/Common/wom-default-clientssl"
    },
    "value" : "0.0"
  }, {
    "tags" : {
      "im.dstype" : "counter",
      "im.dstype.displaytype" : "number",
      "im.name" : "ssl-insecure-renegotiations-rejected",
      "name" : "/Common/clientssl"
    },
    "value" : "0.0"
  }, {
    "tags" : {
      "im.dstype" : "counter",
      "im.dstype.displaytype" : "number",
      "im.name" : "ssl-insecure-renegotiations-rejected",
      "name" : "/Common/clientssl-insecure-compatible"
    },
    "value" : "200.0"
  }, {
    "tags" : {
      "im.dstype" : "counter",
      "im.dstype.displaytype" : "number",
      "im.name" : "ssl-insecure-renegotiations-rejected",
      "name" : "/Common/clientssl-secure"
    },
    "value" : "0.0"
  }, {
    "tags" : {
      "im.dstype" : "counter",
      "im.dstype.displaytype" : "number",
      "im.name" : "ssl-insecure-renegotiations-rejected",
      "name" : "/Common/crypto-server-default-clientssl"
    },
    "value" : "0.0"
  }, {
    "tags" : {
      "im.dstype" : "counter",
      "im.dstype.displaytype" : "number",
      "im.name" : "ssl-insecure-renegotiations-rejected",
      "name" : "/Common/wom-default-clientssl"
    },
    "value" : "0.0"
  }, {
    "tags" : {
      "im.dstype" : "counter",
      "im.dstype.displaytype" : "number",
      "im.name" : "ssl-secure-handshakes",
      "name" : "/Common/clientssl"
    },
    "value" : "0.0"
  }, {
    "tags" : {
      "im.dstype" : "counter",
      "im.dstype.displaytype" : "number",
      "im.name" : "ssl-secure-handshakes",
      "name" : "/Common/clientssl-insecure-compatible"
    },
    "value" : "130.0"
  }, {
    "tags" : {
      "im.dstype" : "counter",
      "im.dstype.displaytype" : "number",
      "im.name" : "ssl-secure-handshakes",
      "name" : "/Common/clientssl-secure"
    },
    "value" : "0.0"
  }, {
    "tags" : {
      "im.dstype" : "counter",
      "im.dstype.displaytype" : "number",
      "im.name" : "ssl-secure-handshakes",
      "name" : "/Common/crypto-server-default-clientssl"
    },
    "value" : "0.0"
  }, {
    "tags" : {
      "im.dstype" : "counter",
      "im.dstype.displaytype" : "number",
      "im.name" : "ssl-secure-handshakes",
      "name" : "/Common/wom-default-clientssl"
    },
    "value" : "0.0"
  } ]
}
