{
  "command" : "f5-rest-mgmt-tm-sys-crypto-cert",
  "metrics" : [ {
    "tags" : {
      "im.dstype.displaytype" : "date",
      "im.name" : "certificate-expiration",
      "name" : "ca-bundle.crt"
    },
    "values" : [ "1.534948911E9" ]
  }, {
    "tags" : {
      "commonname" : "localhost.localdomain",
      "im.dstype.displaytype" : "date",
      "im.name" : "certificate-expiration",
      "name" : "default.crt"
    },
    "values" : [ "1.65080366E9" ]
  }, {
    "tags" : {
      "commonname" : "mysite.com",
      "im.dstype.displaytype" : "date",
      "im.name" : "certificate-expiration",
      "name" : "mysite.com.crt"
    },
    "values" : [ "1.50180480E9" ]
  }, {
    "tags" : {
      "commonname" : "support.f5.com",
      "im.dstype.displaytype" : "date",
      "im.name" : "certificate-expiration",
      "name" : "f5-irule.crt"
    },
    "values" : [ "1.944415289E9" ]
  } ]
}
