{
  "command" : "f5-rest-mgmt-tm-sys-version",
  "metrics" : [ {
    "tags" : {
      "im.name" : "os-name"
    },
    "value" : {
      "value" : "BIG-IP"
    }
  }, {
    "tags" : {
      "im.name" : "os-version"
    },
    "value" : {
      "value" : "12.1.1"
    }
  }, {
    "tags" : {
      "im.name" : "vendor"
    },
    "value" : {
      "value" : "F5"
    }
  }, {
    "tags" : {
      "display-name" : "Software End of Support",
      "im.dstype.displaytype" : "date",
      "im.name" : "software-eos-date",
      "live-config" : "true"
    },
    "values" : [ "1501804800" ]
  } ]
}
