{
  "command" : "f5-tmsh-show-sys-performance-connections",
  "metrics" : [ {
    "tags" : {
      "im.dstype" : "number",
      "im.metric-type" : "ts",
      "im.name" : "concurrent-connections",
      "im.step" : "60"
    },
    "values" : [ "12810.0", "19586.0", "16093.0", "13412.0", "15344.0", "10291.0", "18222.0", "18063.0", "19472.0", "10903.0", "16183.0", "10503.0", "16032.0", "14880.0", "12146.0", "19081.0", "10759.0", "15252.0", "12631.0", "12479.0", "19316.0", "13026.0", "18478.0", "14884.0", "14136.0", "18510.0", "18933.0", "16884.0", "12041.0", "14215.0", "18061.0", "13995.0", "14625.0", "14289.0", "15583.0", "16070.0", "10164.0", "14714.0", "11600.0", "16524.0", "12162.0", "12420.0", "11752.0", "12776.0", "16778.0", "13014.0", "10397.0", "16528.0", "11735.0", "16772.0", "15225.0", "16047.0", "18266.0", "12949.0", "13645.0", "14830.0", "12867.0", "16789.0", "10585.0", "11472.0", "16223.0", "17827.0", "17244.0", "16335.0", "18511.0", "13793.0", "12301.0", "10474.0", "13611.0", "17624.0", "12655.0", "15055.0", "13916.0", "10000.0", "10746.0", "10327.0", "11875.0", "15718.0", "13534.0", "19664.0", "13370.0", "19767.0", "13816.0", "17919.0", "16983.0", "14463.0", "14243.0", "17836.0", "14205.0", "15971.0", "12352.0", "12326.0", "14612.0", "12500.0", "10547.0", "11654.0", "13395.0", "16629.0", "15833.0", "15935.0", "14457.0", "15959.0", "13149.0", "12789.0", "11815.0", "16719.0", "19061.0", "11142.0", "16184.0", "14712.0", "16762.0", "19053.0", "14342.0", "18630.0", "16499.0", "12351.0", "14176.0", "14182.0", "14088.0", "19820.0", "18347.0", "12259.0", "19327.0", "14818.0", "10285.0", "18500.0", "10587.0", "17122.0", "17979.0", "10433.0", "13637.0", "19188.0", "18059.0", "11389.0", "16101.0", "19890.0", "12053.0", "11954.0", "14067.0", "18764.0", "18932.0", "16734.0", "12595.0", "10195.0", "16629.0", "17030.0", "16317.0", "13338.0", "13344.0", "11997.0", "14432.0", "15743.0", "16662.0", "18453.0", "15035.0", "19217.0", "16963.0", "15147.0", "10264.0", "10512.0", "18147.0", "13614.0", "15298.0", "13503.0", "10927.0", "17477.0", "18759.0", "14185.0", "16635.0", "10757.0", "10356.0", "15157.0", "10256.0", "16496.0", "16000.0", "13847.0", "16469.0", "19493.0", "18870.0", "13794.0", "16418.0", "11657.0", "17122.0", "16710.0", "19401.0", "11937.0", "16586.0", "13082.0", "11406.0", "19394.0", "13620.0", "16463.0", "19017.0", "10835.0", "11022.0", "19381.0", "13270.0", "11173.0", "17423.0", "11741.0", "16268.0", "16638.0", "12734.0", "16471.0", "12966.0", "11191.0", "18395.0", "13060.0", "19119.0", "12113.0", "18347.0", "14493.0", "13123.0", "10182.0", "11733.0", "15486.0", "13700.0", "10226.0", "17899.0", "18859.0", "15129.0", "15695.0", "14445.0", "11209.0", "16997.0", "10878.0", "12580.0", "14085.0", "11228.0", "17897.0", "19248.0", "10927.0", "18512.0", "12386.0", "11495.0", "19153.0", "10309.0", "18579.0", "14067.0", "16261.0", "17199.0", "19073.0", "15560.0", "15381.0", "13156.0", "13561.0", "14899.0", "19898.0", "17185.0", "13287.0", "18744.0", "16241.0", "19720.0", "15315.0", "15812.0", "12801.0", "11055.0", "13805.0", "10083.0", "15642.0", "17120.0", "11440.0", "13856.0", "11707.0", "13405.0", "14483.0", "19433.0", "15318.0", "11867.0", "11997.0", "11853.0", "15632.0", "15890.0", "11182.0", "13533.0", "11562.0", "14237.0", "14274.0", "14703.0", "18801.0", "19300.0", "19925.0", "11339.0", "12753.0", "16177.0", "12587.0", "17922.0", "16182.0", "12128.0", "10167.0", "17405.0", "15654.0", "10683.0", "17485.0", "13622.0", "11491.0", "14327.0", "19219.0", "18631.0", "11521.0", "14151.0", "13852.0", "15233.0", "18756.0", "10537.0", "12928.0", "13066.0", "13880.0", "11040.0", "14318.0", "14263.0", "10105.0", "15176.0", "16750.0", "12111.0", "19224.0", "11897.0", "16529.0", "15330.0", "15809.0", "16715.0", "17404.0", "14220.0", "10768.0", "17167.0", "12422.0", "13789.0", "11902.0", "18841.0", "11398.0", "15723.0", "11181.0", "14340.0", "14099.0", "19861.0", "17463.0", "18031.0", "19070.0", "10222.0", "10507.0", "15171.0", "16169.0", "10006.0", "14448.0", "16396.0", "13211.0", "18000.0", "12744.0", "13139.0", "17384.0", "19639.0", "12801.0", "12934.0", "11539.0", "10158.0", "17311.0", "16793.0", "12506.0", "18103.0", "18718.0", "19699.0", "17711.0", "13200.0", "12082.0", "12681.0", "19166.0", "12510.0", "19311.0", "17573.0", "15799.0", "15833.0", "15355.0", "14459.0", "10952.0", "16011.0", "14725.0", "13708.0", "13820.0", "11348.0", "16015.0", "14323.0", "13187.0", "13526.0", "16514.0", "12775.0", "14173.0", "16865.0", "15611.0", "10121.0", "10743.0", "15767.0", "11656.0", "11594.0", "10883.0", "16609.0", "12127.0", "17551.0", "18510.0", "13966.0", "18571.0", "15050.0", "10254.0", "14609.0", "14594.0", "11321.0", "16444.0", "13363.0", "19096.0", "13084.0", "11330.0", "10512.0", "11859.0", "11756.0", "16057.0", "11613.0", "19581.0", "17953.0", "14769.0", "14145.0", "17330.0", "13500.0", "16618.0", "12572.0", "12865.0", "10294.0", "18451.0", "16715.0", "15142.0", "18851.0", "18382.0", "12353.0", "13535.0", "11059.0", "19973.0", "19217.0", "19617.0", "10385.0", "17669.0", "15348.0", "19704.0", "11780.0", "19032.0", "17372.0", "14895.0", "14887.0", "16354.0", "10466.0", "14765.0", "14425.0", "17846.0", "17574.0", "12349.0", "14759.0", "17899.0", "18533.0", "14537.0", "15186.0", "14681.0", "19348.0", "14751.0", "16488.0", "13027.0", "10113.0", "15418.0", "13547.0", "15770.0", "13119.0", "15416.0", "15202.0", "14874.0", "19593.0", "19871.0", "10035.0", "12746.0", "18124.0", "12304.0", "19155.0", "11373.0", "14908.0", "17840.0", "17482.0", "15385.0", "12744.0", "12276.0", "14453.0", "16119.0", "14181.0", "11736.0", "10179.0", "16783.0", "15165.0", "10752.0", "11687.0", "13168.0", "11122.0", "10751.0", "14377.0", "11019.0", "12793.0", "13203.0", "15552.0", "14068.0", "19080.0", "12048.0", "17873.0", "13462.0", "17933.0", "15757.0", "16391.0", "13055.0", "14078.0", "18825.0", "14111.0", "13686.0", "12136.0", "13353.0", "14510.0", "16859.0", "13499.0", "10680.0", "17543.0", "13380.0", "10091.0", "13840.0", "11883.0", "12060.0", "16589.0", "17237.0", "19738.0", "19369.0", "15118.0", "12362.0", "14602.0", "12823.0", "14084.0", "15691.0", "14260.0", "15515.0", "14730.0", "11629.0", "18747.0", "16845.0", "10910.0", "10806.0", "11640.0", "11048.0", "16363.0", "19806.0", "19040.0", "17001.0", "11801.0", "19037.0", "17524.0", "18597.0", "18447.0", "17751.0", "19756.0", "10624.0", "13827.0", "17725.0", "10612.0", "12595.0", "11294.0", "19204.0", "11307.0", "15855.0", "17419.0", "18650.0", "11069.0", "15868.0", "11838.0", "12570.0", "10983.0", "15348.0", "16733.0", "12097.0", "12129.0", "17743.0", "17735.0", "14271.0", "10143.0", "14705.0", "10831.0", "15700.0", "17822.0", "10731.0", "19114.0", "14652.0", "13144.0", "16688.0", "15936.0", "15356.0", "11873.0", "10013.0", "17769.0", "13004.0", "18643.0", "15434.0", "10414.0", "10480.0" ]
  }, {
    "tags" : {
      "im.dstype" : "number",
      "im.metric-type" : "ts",
      "im.name" : "connections-per-second",
      "im.step" : "60"
    },
    "values" : [ "807.0", "1139.0", "1307.0", "980.0", "1115.0", "900.0", "1227.0", "1292.0", "1113.0", "1134.0", "898.0", "1088.0", "1127.0", "1201.0", "1102.0", "719.0", "1173.0", "1307.0", "1101.0", "1084.0", "1027.0", "1005.0", "1338.0", "806.0", "1247.0", "1324.0", "1349.0", "859.0", "1190.0", "735.0", "1041.0", "718.0", "1158.0", "1084.0", "965.0", "1391.0", "909.0", "734.0", "1240.0", "1048.0", "1291.0", "1226.0", "1041.0", "1143.0", "902.0", "774.0", "1089.0", "986.0", "1337.0", "825.0", "1171.0", "1316.0", "1377.0", "860.0", "1159.0", "787.0", "1374.0", "1002.0", "916.0", "764.0", "1251.0", "1237.0", "1261.0", "888.0", "782.0", "866.0", "1022.0", "1339.0", "1329.0", "1134.0", "1000.0", "1269.0", "1165.0", "888.0", "1235.0", "942.0", "1384.0", "914.0", "1104.0", "964.0", "1166.0", "939.0", "847.0", "1368.0", "1183.0", "1217.0", "871.0", "947.0", "1333.0", "713.0", "705.0", "1315.0", "918.0", "1392.0", "1138.0", "844.0", "1225.0", "778.0", "712.0", "751.0", "1329.0", "1347.0", "942.0", "1144.0", "854.0", "849.0", "1108.0", "1357.0", "1260.0", "1360.0", "1069.0", "938.0", "911.0", "1081.0", "1294.0", "1251.0", "1280.0", "858.0", "813.0", "1272.0", "819.0", "1352.0", "1239.0", "1065.0", "718.0", "1319.0", "1036.0", "1355.0", "787.0", "1056.0", "909.0", "1104.0", "1295.0", "1144.0", "780.0", "1128.0", "1037.0", "1185.0", "1223.0", "761.0", "872.0", "1248.0", "742.0", "1016.0", "701.0", "1198.0", "1239.0", "1109.0", "823.0", "704.0", "1127.0", "972.0", "1378.0", "1345.0", "1076.0", "1200.0", "786.0", "1216.0", "1273.0", "1213.0", "1241.0", "973.0", "1015.0", "1297.0", "807.0", "934.0", "1309.0", "834.0", "754.0", "1323.0", "1191.0", "930.0", "1341.0", "882.0", "1326.0", "1004.0", "1271.0", "1147.0", "1034.0", "1106.0", "783.0", "1244.0", "1165.0", "1334.0", "1243.0", "1020.0", "1079.0", "960.0", "791.0", "1398.0", "1262.0", "1048.0", "938.0", "1033.0", "1010.0", "1359.0", "895.0", "1211.0", "999.0", "851.0", "747.0", "862.0", "963.0", "1236.0", "776.0", "1250.0", "954.0", "1156.0", "939.0", "916.0", "1379.0", "1273.0", "1089.0", "883.0", "1365.0", "911.0", "1110.0", "917.0", "999.0", "1266.0", "1141.0", "1316.0", "1245.0", "944.0", "780.0", "1222.0", "861.0", "1059.0", "1047.0", "778.0", "887.0", "726.0", "719.0", "1018.0", "860.0", "703.0", "847.0", "891.0", "1096.0", "800.0", "1001.0", "846.0", "1293.0", "1391.0", "1198.0", "1225.0", "1185.0", "744.0", "854.0", "845.0", "968.0", "1216.0", "764.0", "1109.0", "1063.0", "737.0", "934.0", "761.0", "857.0", "1337.0", "1053.0", "1001.0", "716.0", "1258.0", "979.0", "1262.0", "808.0", "1241.0", "751.0", "750.0", "860.0", "1049.0", "1301.0", "878.0", "1043.0", "1349.0", "1113.0", "1160.0", "854.0", "1345.0", "962.0", "1295.0", "981.0", "1145.0", "866.0", "1339.0", "1055.0", "1323.0", "1025.0", "1233.0", "907.0", "1183.0", "791.0", "980.0", "976.0", "1083.0", "1368.0", "1100.0", "1189.0", "945.0", "1162.0", "1129.0", "846.0", "1071.0", "897.0", "756.0", "1257.0", "739.0", "1377.0", "829.0", "1019.0", "1378.0", "759.0", "1146.0", "1038.0", "795.0", "941.0", "916.0", "1054.0", "1010.0", "1396.0", "1184.0", "821.0", "949.0", "1042.0", "1284.0", "887.0", "1185.0", "1071.0", "1161.0", "1048.0", "1085.0", "896.0", "1102.0", "1293.0", "1260.0", "882.0", "1126.0", "1216.0", "1017.0", "797.0", "1313.0", "1113.0", "1063.0", "1275.0", "1017.0", "946.0", "752.0", "1076.0", "1219.0", "1066.0", "1079.0", "1053.0", "1126.0", "1247.0", "1000.0", "831.0", "985.0", "1382.0", "1276.0", "762.0", "1368.0", "997.0", "1096.0", "853.0", "1316.0", "1047.0", "1162.0", "1084.0", "967.0", "911.0", "1374.0", "1069.0", "1020.0", "1082.0", "1293.0", "755.0", "1326.0", "1357.0", "1080.0", "1235.0", "961.0", "935.0", "985.0", "826.0", "763.0", "981.0", "927.0", "1290.0", "987.0", "1212.0", "1017.0", "908.0", "940.0", "873.0", "1172.0", "1357.0", "1212.0", "889.0", "1079.0", "1114.0", "808.0", "1030.0", "1244.0", "795.0", "1396.0", "1384.0", "959.0", "1083.0", "1219.0", "1085.0", "956.0", "1248.0", "1171.0", "1167.0", "1365.0", "905.0", "1307.0", "1244.0", "927.0", "1395.0", "887.0", "982.0", "1132.0", "729.0", "1197.0", "1396.0", "727.0", "1383.0", "1373.0", "948.0", "935.0", "1211.0", "905.0", "1359.0", "981.0", "858.0", "1224.0", "1080.0", "1044.0", "942.0", "1128.0", "836.0", "910.0", "790.0", "871.0", "778.0", "745.0", "936.0", "1095.0", "1247.0", "1325.0", "757.0", "1244.0", "1018.0", "864.0", "979.0", "749.0", "921.0", "785.0", "822.0", "1020.0", "1326.0", "1276.0", "716.0", "1079.0", "1198.0", "1264.0", "1339.0", "963.0", "1047.0", "1344.0", "1060.0", "970.0", "1358.0", "1279.0", "913.0", "1036.0", "1365.0", "1113.0", "963.0", "850.0", "714.0", "827.0", "1216.0", "1217.0", "1047.0", "1106.0", "721.0", "945.0", "836.0", "788.0", "1149.0", "1133.0", "1012.0", "945.0", "912.0", "955.0", "1141.0", "1163.0", "1219.0", "946.0", "838.0", "1326.0", "1319.0", "819.0", "916.0", "1395.0", "927.0", "791.0", "1175.0", "1185.0", "1357.0", "1334.0", "1344.0", "1277.0", "703.0", "937.0", "1090.0", "771.0", "1214.0", "848.0", "766.0", "1104.0", "911.0", "1218.0", "873.0", "722.0", "1367.0", "874.0", "737.0", "1352.0", "1191.0", "1043.0", "808.0", "1268.0", "1222.0", "1090.0", "1282.0", "1384.0", "769.0", "1251.0", "1186.0", "1291.0", "1380.0", "1130.0", "718.0", "1177.0", "1037.0", "1312.0", "746.0", "1349.0", "721.0", "1244.0", "802.0", "1255.0", "743.0", "1323.0", "1304.0", "1238.0", "1199.0", "978.0", "1367.0", "1122.0", "1193.0", "1175.0", "920.0", "1021.0", "739.0", "1041.0", "1336.0", "1042.0", "1076.0", "1045.0", "1140.0", "708.0", "1114.0", "1293.0", "1040.0", "1047.0", "929.0", "809.0", "1110.0", "973.0", "876.0", "1198.0", "852.0", "879.0", "963.0", "1280.0", "756.0", "1176.0", "1370.0", "1319.0", "1122.0", "1176.0", "1165.0", "914.0", "976.0", "1133.0" ]
  } ]
}
