{
  "command" : "f5-tmsh-show-sys-ha-group-detail",
  "metrics" : [ {
    "tags" : {
      "im.metric-type" : "runtime",
      "im.name" : "f5-ha-group"
    },
    "value" : [ {
      "name" : "trunk-health",
      "active-bonus" : "100",
      "Pool 2" : "/Anotherpartition/Anotherpool - Threshold: 0 - Percent up: 100 - Weight: 50",
      "Trunk 2" : "Trunk name: Internal - Threshold: 0 - Percent up: 100 - Weight: 50",
      "Pool 1" : "/Partition/Mypool - Threshold: 0 - Percent up: 100 - Weight: 25",
      "Trunk 1" : "Trunk name: External - Threshold: 0 - Percent up: 100 - Weight: 50"
    } ]
  } ]
}
