{
  "command" : "nexus-show-ip-ospf-neighbors",
  "metrics" : [ {
    "tags" : {
      "im.dstype" : "gauge",
      "im.metric-type" : "ts",
      "im.name" : "ospf-state",
      "name" : "10.28.0.34"
    },
    "value" : "1.0"
  }, {
    "tags" : {
      "im.dstype" : "gauge",
      "im.metric-type" : "ts",
      "im.name" : "ospf-state",
      "name" : "192.11.108.129"
    },
    "value" : "1.0"
  }, {
    "tags" : {
      "im.dstype" : "gauge",
      "im.metric-type" : "ts",
      "im.name" : "ospf-state",
      "name" : "192.11.208.129"
    },
    "value" : "1.0"
  }, {
    "tags" : {
      "im.dstype" : "gauge",
      "im.metric-type" : "ts",
      "im.name" : "ospf-state",
      "name" : "192.111.208.129"
    },
    "value" : "0.0"
  } ]
}
