{
  "command" : "nexus-show-clock",
  "metrics" : [ {
    "tags" : {
      "display-name" : "Time Zone",
      "im.metric-type" : "runtime",
      "im.name" : "timezone",
      "live-config" : "true"
    },
    "value" : {
      "value" : "UTC"
    }
  }, {
    "tags" : {
      "display-name" : "Current Date/Time",
      "im.dstype" : "gauge",
      "im.dstype.displaytype" : "date",
      "im.metric-type" : "ts",
      "im.name" : "current-datetime",
      "live-config" : "true"
    },
    "value" : "1.505014591E9"
  } ]
}
