{
  "command" : "nexus-show-debug",
  "metrics" : [ {
    "tags" : {
      "im.dstype" : "gauge",
      "im.metric-type" : "ts",
      "im.name" : "debug-status",
      "name" : "Warning"
    },
    "value" : "1.0"
  }, {
    "tags" : {
      "im.dstype" : "gauge",
      "im.metric-type" : "ts",
      "im.name" : "debug-status",
      "name" : "ip bgp events"
    },
    "value" : "1.0"
  }, {
    "tags" : {
      "im.dstype" : "gauge",
      "im.metric-type" : "ts",
      "im.name" : "debug-status",
      "name" : "ip icmp"
    },
    "value" : "1.0"
  } ]
}
