{
  "command" : "linux-console_idle_time",
  "metrics" : [ {
    "tags" : {
      "im.metric-type" : "runtime",
      "im.name" : "logged-in-users"
    },
    "value" : [ {
      "username" : "admin",
      "terminal" : "pts/1",
      "idle" : "0",
      "from" : "10.10.1.251"
    } ]
  } ]
}
