{
  "command" : "cphaprob_a_if_vsx",
  "metrics" : [ {
    "tags" : {
      "display-name" : "CCP Mode",
      "im.metric-type" : "runtime",
      "im.name" : "clusterxl-ccp-mode",
      "live-config" : "true"
    },
    "value" : {
      "value" : "broadcast"
    }
  }, {
    "tags" : {
      "im.metric-type" : "runtime",
      "im.name" : "cluster-vip",
      "vs.id" : "2"
    },
    "value" : [ {
      "eth0" : "10.3.3.71"
    }, {
      "wrp128" : "10.3.3.77"
    }, {
      "eth1.2" : "10.3.2.78"
    } ]
  }, {
    "tags" : {
      "im.dstype" : "gauge",
      "im.metric-type" : "ts",
      "im.name" : "cphaprob-required-interfaces",
      "im.step" : "60",
      "vs.id" : "0"
    },
    "value" : "6.0"
  }, {
    "tags" : {
      "im.dstype" : "gauge",
      "im.metric-type" : "ts",
      "im.name" : "cphaprob-required-secured-interfaces",
      "im.step" : "60",
      "vs.id" : "0"
    },
    "value" : "1.0"
  }, {
    "tags" : {
      "im.metric-type" : "runtime",
      "im.name" : "cluster-vip",
      "vs.id" : "0"
    },
    "value" : [ {
      "eth0" : "10.3.3.71"
    } ]
  }, {
    "tags" : {
      "im.metric-type" : "runtime",
      "im.name" : "cluster-vip",
      "vs.id" : "1"
    },
    "value" : [ {
      "eth0" : "10.3.3.71"
    } ]
  }, {
    "tags" : {
      "im.metric-type" : "runtime",
      "im.name" : "cluster-vip",
      "vs.id" : "3"
    },
    "value" : [ {
      "eth0" : "10.3.3.71"
    }, {
      "wrp128" : "10.3.3.77"
    }, {
      "eth1.2" : "10.3.2.78"
    } ]
  }, {
    "tags" : {
      "im.dstype" : "gauge",
      "im.metric-type" : "ts",
      "im.name" : "cphaprob-required-interfaces",
      "im.step" : "60",
      "vs.id" : "2"
    },
    "value" : "2.0"
  }, {
    "tags" : {
      "im.dstype" : "gauge",
      "im.metric-type" : "ts",
      "im.name" : "cphaprob-required-interfaces",
      "im.step" : "60",
      "vs.id" : "3"
    },
    "value" : "2.0"
  }, {
    "tags" : {
      "im.dstype" : "gauge",
      "im.metric-type" : "ts",
      "im.name" : "cphaprob-required-secured-interfaces",
      "im.step" : "60",
      "vs.id" : "2"
    },
    "value" : "1.0"
  }, {
    "tags" : {
      "im.dstype" : "gauge",
      "im.metric-type" : "ts",
      "im.name" : "cphaprob-required-secured-interfaces",
      "im.step" : "60",
      "vs.id" : "3"
    },
    "value" : "1.0"
  }, {
    "tags" : {
      "im.dstype" : "gauge",
      "im.metric-type" : "ts",
      "im.name" : "cphaprob-up-interfaces",
      "im.step" : "60",
      "vs.id" : "0"
    },
    "value" : "1.0"
  }, {
    "tags" : {
      "im.dstype" : "gauge",
      "im.metric-type" : "ts",
      "im.name" : "cphaprob-up-interfaces",
      "im.step" : "60",
      "vs.id" : "1"
    },
    "value" : "0.0"
  }, {
    "tags" : {
      "im.dstype" : "gauge",
      "im.metric-type" : "ts",
      "im.name" : "cphaprob-up-interfaces",
      "im.step" : "60",
      "vs.id" : "2"
    },
    "value" : "2.0"
  }, {
    "tags" : {
      "im.dstype" : "gauge",
      "im.metric-type" : "ts",
      "im.name" : "cphaprob-up-interfaces",
      "im.step" : "60",
      "vs.id" : "3"
    },
    "value" : "2.0"
  }, {
    "tags" : {
      "im.dstype" : "gauge",
      "im.metric-type" : "ts",
      "im.name" : "cphaprob-up-secured-interfaces",
      "im.step" : "60",
      "vs.id" : "0"
    },
    "value" : "1.0"
  }, {
    "tags" : {
      "im.dstype" : "gauge",
      "im.metric-type" : "ts",
      "im.name" : "cphaprob-up-secured-interfaces",
      "im.step" : "60",
      "vs.id" : "1"
    },
    "value" : "0.0"
  }, {
    "tags" : {
      "im.dstype" : "gauge",
      "im.metric-type" : "ts",
      "im.name" : "cphaprob-up-secured-interfaces",
      "im.step" : "60",
      "vs.id" : "2"
    },
    "value" : "1.0"
  }, {
    "tags" : {
      "im.dstype" : "gauge",
      "im.metric-type" : "ts",
      "im.name" : "cphaprob-up-secured-interfaces",
      "im.step" : "60",
      "vs.id" : "3"
    },
    "value" : "1.0"
  } ]
}
