{
  "command" : "chkp-gaia-clish_show_ospf_neighbors",
  "metrics" : [ {
    "tags" : {
      "display-name" : "OSPF Neighbors",
      "im.dstype" : "gauge",
      "im.dstype.displaytype" : "state",
      "im.identity-tags" : "name",
      "im.metric-type" : "ts",
      "im.name" : "ospf-state",
      "im.step" : "60",
      "live-config" : "true",
      "name" : "1.142.128.104 priority: 1 address: 10.201.134.131"
    },
    "values" : ["1.0","1.0","1.0","0.0","0.0","1.0"]
  }, {
    "tags" : {
      "display-name" : "OSPF Neighbors",
      "im.dstype" : "gauge",
      "im.dstype.displaytype" : "state",
      "im.identity-tags" : "name",
      "im.metric-type" : "ts",
      "im.name" : "ospf-state",
      "im.step" : "60",
      "live-config" : "true",
      "name" : "1.142.128.82 priority: 1 address: 10.201.134.32"
    },
    "value" : "1.0"
  }, {
    "tags" : {
      "display-name" : "OSPF Neighbors",
      "im.dstype" : "gauge",
      "im.dstype.displaytype" : "state",
      "im.identity-tags" : "name",
      "im.metric-type" : "ts",
      "im.name" : "ospf-state",
      "im.step" : "60",
      "live-config" : "true",
      "name" : "10.0.0.50 priority: 1 address: 10.0.0.50"
    },
    "value" : "0.0"
  }, {
    "tags" : {
      "display-name" : "OSPF Neighbors",
      "im.dstype" : "gauge",
      "im.dstype.displaytype" : "state",
      "im.identity-tags" : "name",
      "im.metric-type" : "ts",
      "im.name" : "ospf-state",
      "im.step" : "60",
      "live-config" : "true",
      "name" : "10.0.0.50 priority: 1 address: 10.0.0.56"
    },
    "value" : "0.0"
  }, {
    "tags" : {
      "display-name" : "OSPF Neighbors",
      "im.dstype" : "gauge",
      "im.dstype.displaytype" : "state",
      "im.identity-tags" : "name",
      "im.metric-type" : "ts",
      "im.name" : "ospf-state",
      "im.step" : "60",
      "live-config" : "true",
      "name" : "10.224.224.1 priority: 1 address: 10.124.140.10"
    },
    "value" : "1.0"
  }, {
    "tags" : {
      "display-name" : "OSPF Neighbors",
      "im.dstype" : "gauge",
      "im.dstype.displaytype" : "state",
      "im.identity-tags" : "name",
      "im.metric-type" : "ts",
      "im.name" : "ospf-state",
      "im.step" : "60",
      "live-config" : "true",
      "name" : "10.224.224.2 priority: 1 address: 10.124.140.11"
    },
    "value" : "1.0"
  } ]
}
